02_filtering_data.knit
…
We start with 8150 rows.

See page 16 for more information: https://nccs.urban.org/pubs/nccs-data-guide.pdf and see
https://urbaninstitute.github.io/nccs-legacy/ntee/ntee-history.html.

socialclubs <-org_data %>% filter(str_detect(string = NTEE_IRS, pattern = "Y|y"))
socialclubs %>% dplyr::select(ORG_NAME_CURRENT)

## Simple feature collection with 21 features and 1 field
## Geometry type: POINT
## Dimension:     XY
## Bounding box:  xmin: -76.70011 ymin: 39.22858 xmax: -76.53126 ymax: 39.369
## Geodetic CRS:  WGS 84
## # A tibble: 21 × 2
##    ORG_NAME_CURRENT                                              geometry.x
##    <chr>                                                        <POINT [°]>
##  1 CATHOLIC DAUGHTERS OF AMERICA 1600 CT ST JOSEPH     (-76.70011 39.27981)
##  2 CATHOLIC DAUGHTERS OF AMERICA 1034 CT LITTLE FLOWER (-76.57475 39.29161)
##  3 CATHOLIC DAUGHTERS OF THE AMERICAS                    (-76.60268 39.369)
##  4 CATHOLIC DAUGHTERS OF THE AMERICAS                  (-76.57505 39.32177)
##  5 CATHOLIC DAUGHTERS OF AMERICA 1801 CT ST PIUS X     (-76.60525 39.22858)
##  6 ANCIENT AND ACCEPTED SCOTTISH RITE OF FREE MASONRY… (-76.60412 39.29132)
##  7 LEADERS WITH INTEGRITY FOCUS AND EDUCATION          (-76.58629 39.35061)
##  8 GRAND LODGE CESKO SLOVANSKA PODPORUJICI SPOLECNOST… (-76.55258 39.30808)
##  9 JOURNEY CONTINUES INC                               (-76.58843 39.36335)
## 10 BOHEMIAN CEMETERY COMPANY                           (-76.55258 39.30808)
## # ℹ 11 more rows
…
After filtering out social clubs we end up with 8129 rows, removing
21 social club orgs.

Filter out PO Boxes

Post_offices <- org_data %>% filter(str_detect(F990_ORG_ADDR_STREET, "PO BOX |POST OFFICE"))

Post_offices %>% dplyr::select(F990_ORG_ADDR_STREET)

## Simple feature collection with 422 features and 1 field
## Geometry type: POINT
## Dimension:     XY
## Bounding box:  xmin: -76.69207 ymin: 39.24325 xmax: -76.54166 ymax: 39.36672
## Geodetic CRS:  WGS 84
## # A tibble: 422 × 2
##    F990_ORG_ADDR_STREET           geometry.x
##    <chr>                         <POINT [°]>
##  1 PO BOX 66182         (-76.58814 39.36046)
##  2 PO BOX 27297          (-76.67225 39.3118)
##  3 PO BOX 11714          (-76.5559 39.33483)
##  4 PO BOX 67612          (-76.68345 39.3461)
##  5 PO BOX 66462         (-76.58843 39.36335)
##  6 PO BOX 2035          (-76.60412 39.29132)
##  7 PO BOX 1652          (-76.60454 39.29244)
##  8 PO BOX 79502         (-76.56761 39.29284)
##  9 PO BOX 39584         (-76.60998 39.36408)
## 10 PO BOX 2727          (-76.60911 39.24325)
## # ℹ 412 more rows
…
