03_filter_orgs_and_analysis.knit
…
this includes all organizations

High vs non asset by category

First create data to make visualization easier

High_asset_data <-df_simplified %>%
  group_by(ASSET_High_text, Neighborhood, NTEE_text) %>% 
  count()
High_asset_data

## # A tibble: 40 × 4
## # Groups:   ASSET_High_text, Neighborhood, NTEE_text [40]
##    ASSET_High_text Neighborhood          NTEE_text                 n
##    <chr>           <fct>                 <chr>                 <int>
##  1 High Asset      "Majority\nNon-Black" Arts                     48
##  2 High Asset      "Majority\nNon-Black" Education                59
##  3 High Asset      "Majority\nNon-Black" Environment/Animals       8
##  4 High Asset      "Majority\nNon-Black" Health                   71
##  5 High Asset      "Majority\nNon-Black" Human Services           88
##  6 High Asset      "Majority\nNon-Black" International Affairs     8
##  7 High Asset      "Majority\nNon-Black" Other                     1
##  8 High Asset      "Majority\nNon-Black" Religious                12
##  9 High Asset      "Majority\nNon-Black" Societal Benefit         56
## 10 High Asset      "Majority\nNon-Black" Unclassified              1
## # ℹ 30 more rows

#Create percentage variable for each category
High_asset_data <- High_asset_data %>%
  group_by(NTEE_text) %>% 
  mutate(Percent_ntee_cat = round(n/sum(n)*100)) 
High_asset_data

## # A tibble: 40 × 5
## # Groups:   NTEE_text [10]
##    ASSET_High_text Neighborhood          NTEE_text            n Percent_ntee_cat
##    <chr>           <fct>                 <chr>            <int>            <dbl>
##  1 High Asset      "Majority\nNon-Black" Arts                48               15
##  2 High Asset      "Majority\nNon-Black" Education           59               14
##  3 High Asset      "Majority\nNon-Black" Environment/Ani…     8               11
##  4 High Asset      "Majority\nNon-Black" Health              71               24
##  5 High Asset      "Majority\nNon-Black" Human Services      88                8
##  6 High Asset      "Majority\nNon-Black" International A…     8               17
##  7 High Asset      "Majority\nNon-Black" Other                1                4
##  8 High Asset      "Majority\nNon-Black" Religious           12                1
##  9 High Asset      "Majority\nNon-Black" Societal Benefit    56               11
## 10 High Asset      "Majority\nNon-Black" Unclassified         1                1
## # ℹ 30 more rows
…
