Baltimore Nonprofit Analysis
…
this includes all 4,082 organizations

High vs non asset by category

First create data to make visualization easier

High_asset_data <-df_simplified %>%
  group_by(ASSET_High_text, Neighborhood, NTEE_text) %>% 
  count()
High_asset_data

## # A tibble: 36 × 4
## # Groups:   ASSET_High_text, Neighborhood, NTEE_text [36]
##    ASSET_High_text Neighborhood          NTEE_text                 n
##    <chr>           <fct>                 <chr>                 <int>
##  1 High Asset      "Majority\nNon-Black" Arts                     34
##  2 High Asset      "Majority\nNon-Black" Education                54
##  3 High Asset      "Majority\nNon-Black" Environment/Animals       9
##  4 High Asset      "Majority\nNon-Black" Health                   65
##  5 High Asset      "Majority\nNon-Black" Human Services           75
##  6 High Asset      "Majority\nNon-Black" International Affairs     4
##  7 High Asset      "Majority\nNon-Black" NA                      174
##  8 High Asset      "Majority\nNon-Black" Religious                 2
##  9 High Asset      "Majority\nNon-Black" Societal Benefit        122
## 10 High Asset      "Majority\nBlack"     Arts                      8
## # ℹ 26 more rows

#Create percentage variable for each category
High_asset_data <- High_asset_data %>%
  group_by(NTEE_text) %>% 
  mutate(Percent_ntee_cat = round(n/sum(n)*100)) 
High_asset_data

## # A tibble: 36 × 5
## # Groups:   NTEE_text [9]
##    ASSET_High_text Neighborhood          NTEE_text            n Percent_ntee_cat
##    <chr>           <fct>                 <chr>            <int>            <dbl>
##  1 High Asset      "Majority\nNon-Black" Arts                34               13
##  2 High Asset      "Majority\nNon-Black" Education           54               18
##  3 High Asset      "Majority\nNon-Black" Environment/Ani…     9               15
##  4 High Asset      "Majority\nNon-Black" Health              65               25
##  5 High Asset      "Majority\nNon-Black" Human Services      75                9
##  6 High Asset      "Majority\nNon-Black" International A…     4                9
##  7 High Asset      "Majority\nNon-Black" NA                 174               13
##  8 High Asset      "Majority\nNon-Black" Religious            2                0
##  9 High Asset      "Majority\nNon-Black" Societal Benefit   122               23
## 10 High Asset      "Majority\nBlack"     Arts                 8                3
## # ℹ 26 more rows
…
